%module JDaqTokens

%{
#include "daq_tokens/common.h"
#include "daq_tokens/acquire.h"

#include <ers/Issue.h>

#include <sstream>
%}

%include <typemaps.i>
%include <stl.i>
%include <std_common.i>
%include <std_string.i>
%include <various.i>
%include <enums.swg>

%javaexception("daq.tokens.AcquireTokenException") daq::tokens::acquire {
  try {
    $action
  } catch(std::exception& ex) {
    jclass clazz = jenv->FindClass("daq/tokens/AcquireTokenException");
  
    const ers::Issue* issue = dynamic_cast<const ers::Issue*>(&ex);
    if(issue != nullptr) {
        std::ostringstream s;
        s << (*issue) << std::ends;

        const std::string& msg = s.str();
        jenv->ThrowNew(clazz, msg.c_str());
    } else {
        jenv->ThrowNew(clazz, ex.what());
    }

    return $null;
  }
}

%include "../daq_tokens/common.h"
%include "../daq_tokens/acquire.h"
